rb3
…
yc_usd_mget()

Curva de juros nominais (prefixados)

library(rb3)

df_yc <- yc_mget(
  first_date = Sys.Date() - 255 * 5,
  last_date = Sys.Date(),
  by = 255
)

df_yc

# A tibble: 1,105 × 6
   refdate    cur_days biz_days forward_date  r_252  r_360
   <date>        <int>    <dbl> <date>        <dbl>  <dbl>
 1 2020-03-19        1        1 2020-03-20   0.0365 0     
 2 2020-03-19        4        2 2020-03-23   0.0365 0.0259
 3 2020-03-19        7        5 2020-03-26   0.0365 0.0372
 4 2020-03-19       11        7 2020-03-30   0.0365 0.0331
 5 2020-03-19       12        8 2020-03-31   0.0365 0.0347
 6 2020-03-19       13        9 2020-04-01   0.0365 0.036 
 7 2020-03-19       14       10 2020-04-02   0.0365 0.0372
 8 2020-03-19       21       15 2020-04-09   0.0365 0.0372
 9 2020-03-19       27       18 2020-04-15   0.0365 0.0347
10 2020-03-19       32       21 2020-04-20   0.0365 0.0342
# ℹ 1,095 more rows
…
Diversas funções que retoram dados relacionados aos índides divulgados pela B3.

indexes_get(): Lista os índices disponíveis

index_get(): Séries históricas dos índices

index_comp_get(): Composição dos índices

index_weights_get(): Pesos dos ativos que compõem os índices

Composição de índices da B3

index_weights_get("IBOV")

# A tibble: 92 × 3
   symbol  weight   position
   <chr>    <dbl>      <dbl>
 1 ABEV3  0.0316  4380195841
 2 ALPA4  0.00196  201257220
 3 AMER3  0.00711  596875824
 4 ASAI3  0.00603  794531367
 5 AZUL4  0.00357  327741172
 6 B3SA3  0.0395  5987625321
 7 BBAS3  0.0234  1420530937
 8 BBDC3  0.0112  1516726535
 9 BBDC4  0.0461  5160570290
10 BBSE3  0.00848  671629692
# ℹ 82 more rows
…
Opções de ações

ch <- cotahist_get(as.Date("2023-09-01"), "daily")
yc <- yc_get(as.Date("2023-09-01"))

op1 <- cotahist_options_by_symbol_superset("PETR4", ch, yc)

# A tibble: 380 × 28
   refdate    symbol  type  strike maturity_date  open  high   low close average
   <date>     <chr>   <fct>  <dbl> <date>        <dbl> <dbl> <dbl> <dbl>   <dbl>
 1 2023-09-01 PETRI4… Call   14.7  2023-09-15    17.8  17.8  17.8  17.8    17.8 
 2 2023-09-01 PETRI2… Call    0.34 2023-09-15    32    32    32    32      32   
 3 2023-09-01 PETRL1  Call   12.8  2023-12-15    20    20    20    20      20   
 4 2023-09-01 PETRL5… Call   27.8  2023-12-15     6     6     5.8   5.8     5.8 
 5 2023-09-01 PETRL5… Call   28.8  2023-12-15     4.9   5.2   4.9   5.18    5.18
 6 2023-09-01 PETRL5… Call   29.8  2023-12-15     4.3   4.5   4.26  4.5     4.33
 7 2023-09-01 PETRX1  Put    12.8  2023-12-15     0.01  0.01  0.01  0.01    0.01
 8 2023-09-01 PETRX2… Put     3.79 2023-12-15     0.01  0.01  0.01  0.01    0.01
 9 2023-09-01 PETRX4… Put    23.8  2023-12-15     0.2   0.2   0.2   0.2     0.2 
10 2023-09-01 PETRX4… Put    25.8  2023-12-15     0.29  0.29  0.29  0.29    0.29
# ℹ 370 more rows
# ℹ 18 more variables: volume <dbl>, traded_contracts <dbl>,
#   transactions_quantity <int>, distribution_id <int>,
#   symbol.underlying <chr>, open.underlying <dbl>, high.underlying <dbl>,
#   low.underlying <dbl>, close.underlying <dbl>, average.underlying <dbl>,
#   best_bid <dbl>, best_ask <dbl>, volume.underlying <dbl>,
#   traded_contracts.underlying <dbl>, …
…
Opções de ações

op_vol

# A tibble: 334 × 10
   symbol   volume type  close.underlying strike time_to_maturity  rate impvol  delta biz_days
   <chr>     <dbl> <fct>            <dbl>  <dbl>            <dbl> <dbl>  <dbl>  <dbl>    <dbl>
 1 PETRI400   5331 Call              32.6  14.7            0.0357 0.122  NA    NA            9
 2 PETRI200   6400 Call              32.6   0.34           0.0357 0.122  NA    NA            9
 3 PETRJ237 699536 Call              32.6  14.8            0.131  0.121  NA    NA           33
 4 PETRI281 275641 Call              32.6  22.4            0.0357 0.122   1.03  0.979        9
 5 PETRJ245  15235 Call              32.6  18.8            0.131  0.121  NA    NA           33
 6 PETRJ250 305844 Call              32.6  19.3            0.131  0.121  NA    NA           33
 7 PETRJ260  31770 Call              32.6  20.3            0.131  0.121  NA    NA           33
 8 PETRJ265  50406 Call              32.6  20.8            0.131  0.121  NA    NA           33
 9 PETRJ240 129715 Call              32.6  18.3            0.131  0.121  NA    NA           33
10 PETRI254   1282 Call              32.6  19.7            0.0357 0.122  NA    NA            9
# ℹ 324 more rows
…
